[
  {
    "name": "Wheels & Tires",
    "img": "https://i.ibb.co/DwXHPVt/1.png",
    "description": "In a conventional chassis frame, the frame forms the main skeleton of the vehicle.",
    "minimum_order": 100,
    "available_quantity": 1000,
    "single_prise": 101
  },
  {
    "name": "Blue Wheel Inserts",
    "img": "https://i.ibb.co/zVRfsgX/10.png",
    "description": "In a conventional chassis frame, the frame forms the main skeleton of the vehicle.",
    "minimum_order": 100,
    "available_quantity": 1000,
    "single_prise": 12
  },
  {
    "name": "Auto Clutch & Brake",
    "img": "https://i.ibb.co/W31rYZS/11.png",
    "description": "In a conventional chassis frame, the frame forms the main skeleton of the vehicle.",
    "minimum_order": 100,
    "available_quantity": 1000,
    "single_prise": 177
  },
  {
    "name": "Car glass",
    "img": "https://i.ibb.co/HXrGnxM/brown-bear-cushion.png",
    "description": "In a conventional chassis frame, the frame forms the main skeleton of the vehicle.",
    "minimum_order": 100,
    "available_quantity": 1000,
    "single_prise": 112
  },
  {
    "name": "Wheels",
    "img": "https://i.ibb.co/VMQ1RQL/originals-kaval-windbreaker-winter-jacket.png",
    "description": "In a conventional chassis frame, the frame forms the main skeleton of the vehicle.",
    "minimum_order": 100,
    "available_quantity": 1000,
    "single_prise": 900
  },
  {
    "name": "Tire Disk",
    "img": "https://i.ibb.co/s9nZPV7/the-adventure-begins-framed-poster.png",
    "description": "In a conventional chassis frame, the frame forms the main skeleton of the vehicle.",
    "minimum_order": 100,
    "available_quantity": 1000,
    "single_prise": 10
  },
  {
    "name": "17 inch Rims 8 Lug",
    "img": "https://i.ibb.co/DwXHPVt/1.png",
    "description": "In a conventional chassis frame, the frame forms the main skeleton of the vehicle.",
    "minimum_order": 100,
    "available_quantity": 1000,
    "single_prise": 90
  },
  {
    "name": "Tire inside disk",
    "img": "https://i.ibb.co/zVRfsgX/10.png",
    "description": "In a conventional chassis frame, the frame forms the main skeleton of the vehicle.",
    "minimum_order": 100,
    "available_quantity": 1000,
    "single_prise": 19
  },
  {
    "name": "Small car tire",
    "img": "https://i.ibb.co/DwXHPVt/1.png",
    "description": "In a conventional chassis frame, the frame forms the main skeleton of the vehicle.",
    "minimum_order": 100,
    "available_quantity": 1000,
    "single_prise": 10
  }
]
